…
Chromosome Contig502442: 40.74%, 11/27
2,506,155 markers are selected in total.
Principal Component Analysis (PCA) on genotypes:
Excluding 0 SNP (monomorphic: TRUE, MAF: NaN, missing rate: NaN)
    # of samples: 113
    # of SNPs: 2,506,155
    using 2 threads
    # of principal components: 32
PCA:    the sum of all selected genotypes (0,1,2) = 429399839
CPU capabilities: Double-Precision SSE2 AVX
Fri Jun 24 21:55:14 2022    (internal increment: 34468)
[..................................................]  0%, ETC: ---        [==================================================] 100%, completed, 9s
Fri Jun 24 21:55:23 2022    Begin (eigenvalues and eigenvectors)
Fri Jun 24 21:55:23 2022    Done.
# A tibble: 32 x 2
   index variation
   <chr>     <dbl>
 1 PC01      2.13 
 2 PC02      1.57 
 3 PC03      1.40 
 4 PC04      1.27 
 5 PC05      1.11 
 6 PC06      1.10 
 7 PC07      1.08 
 8 PC08      1.05 
 9 PC09      0.980
10 PC10      0.969
#  with 22 more rows
