…
Chromosome LG12: 3.97%, 109/2,749
109 markers are selected in total.
Principal Component Analysis (PCA) on genotypes:
Excluding 0 SNP (monomorphic: TRUE, MAF: NaN, missing rate: NaN)
    # of samples: 113
    # of SNPs: 109
    using 2 threads
    # of principal components: 32
PCA:    the sum of all selected genotypes (0,1,2) = 19832
CPU capabilities: Double-Precision SSE2 AVX
Mon Aug 29 16:55:12 2022    (internal increment: 34468)
[..................................................]  0%, ETC: ---        [==================================================] 100%, completed, 0s
Mon Aug 29 16:55:12 2022    Begin (eigenvalues and eigenvectors)
Mon Aug 29 16:55:12 2022    Done.
# A tibble: 32 x 2
   index variation
   <chr>     <dbl>
 1 PC01       7.44
 2 PC02       5.27
 3 PC03       4.38
 4 PC04       3.76
 5 PC05       3.64
 6 PC06       3.18
 7 PC07       3.13
 8 PC08       2.86
 9 PC09       2.76
10 PC10       2.63
# … with 22 more rows
