…
Chromosome LG24: 16.97%, 74,467/438,748
2,259,638 markers are selected in total.
Principal Component Analysis (PCA) on genotypes:
Excluding 0 SNP (monomorphic: TRUE, MAF: NaN, missing rate: NaN)
    # of samples: 113
    # of SNPs: 2,259,638
    using 2 threads
    # of principal components: 32
PCA:    the sum of all selected genotypes (0,1,2) = 387305062
CPU capabilities: Double-Precision SSE2 AVX
Sat Jun 25 00:49:30 2022    (internal increment: 34468)
[..................................................]  0%, ETC: ---        [==================================================] 100%, completed, 10s
Sat Jun 25 00:49:40 2022    Begin (eigenvalues and eigenvectors)
Sat Jun 25 00:49:40 2022    Done.
# A tibble: 32 x 2
   index variation
   <chr>     <dbl>
 1 PC01      2.17 
 2 PC02      1.59 
 3 PC03      1.41 
 4 PC04      1.27 
 5 PC05      1.11 
 6 PC06      1.09 
 7 PC07      1.08 
 8 PC08      1.05 
 9 PC09      0.984
10 PC10      0.972
# … with 22 more rows
