…
Chromosome LG12: 2.18%, 60/2,749
60 markers are selected in total.
Principal Component Analysis (PCA) on genotypes:
Excluding 0 SNP (monomorphic: TRUE, MAF: NaN, missing rate: NaN)
    # of samples: 113
    # of SNPs: 60
    using 2 threads
    # of principal components: 32
PCA:    the sum of all selected genotypes (0,1,2) = 10168
CPU capabilities: Double-Precision SSE2 AVX
Mon Aug 29 16:47:48 2022    (internal increment: 34468)
[..................................................]  0%, ETC: ---        [==================================================] 100%, completed, 0s
Mon Aug 29 16:47:48 2022    Begin (eigenvalues and eigenvectors)
Mon Aug 29 16:47:48 2022    Done.
# A tibble: 32 x 2
   index variation
   <chr>     <dbl>
 1 PC01       7.66
 2 PC02       5.80
 3 PC03       4.94
 4 PC04       4.66
 5 PC05       4.13
 6 PC06       3.99
 7 PC07       3.50
 8 PC08       3.31
 9 PC09       3.19
10 PC10       3.00
# … with 22 more rows
