…
Chromosome LG12: 90.72%, 2,494/2,749
2,494 markers are selected in total.
Principal Component Analysis (PCA) on genotypes:
Excluding 0 SNP (monomorphic: TRUE, MAF: NaN, missing rate: NaN)
    # of samples: 113
    # of SNPs: 2,494
    using 2 threads
    # of principal components: 32
PCA:    the sum of all selected genotypes (0,1,2) = 502509
CPU capabilities: Double-Precision SSE2 AVX
Thu Jun 23 17:36:45 2022    (internal increment: 34468)
[..................................................]  0%, ETC: ---        [==================================================] 100%, completed, 0s
Thu Jun 23 17:36:45 2022    Begin (eigenvalues and eigenvectors)
Thu Jun 23 17:36:45 2022    Done.
# A tibble: 32 x 2
   index variation
   <chr>     <dbl>
 1 PC01      13.8 
 2 PC02       9.92
 3 PC03       3.28
 4 PC04       2.35
 5 PC05       2.21
 6 PC06       1.94
 7 PC07       1.89
 8 PC08       1.81
 9 PC09       1.77
10 PC10       1.70
# … with 22 more rows
