…
Chromosome LG12: 6.58%, 181/2,749
181 markers are selected in total.
Principal Component Analysis (PCA) on genotypes:
Excluding 0 SNP (monomorphic: TRUE, MAF: NaN, missing rate: NaN)
    # of samples: 113
    # of SNPs: 181
    using 2 threads
    # of principal components: 32
PCA:    the sum of all selected genotypes (0,1,2) = 35642
CPU capabilities: Double-Precision SSE2 AVX
Mon Aug 29 17:23:58 2022    (internal increment: 34468)
[..................................................]  0%, ETC: ---        [==================================================] 100%, completed, 0s
Mon Aug 29 17:23:58 2022    Begin (eigenvalues and eigenvectors)
Mon Aug 29 17:23:58 2022    Done.
# A tibble: 32 x 2
   index variation
   <chr>     <dbl>
 1 PC01       5.82
 2 PC02       3.54
 3 PC03       3.17
 4 PC04       2.71
 5 PC05       2.43
 6 PC06       2.26
 7 PC07       2.24
 8 PC08       2.03
 9 PC09       1.97
10 PC10       1.89
# … with 22 more rows
