…
Chromosome Contig502442: 18.52%, 5/27
148,164 markers are selected in total.
Principal Component Analysis (PCA) on genotypes:
Excluding 0 SNP (monomorphic: TRUE, MAF: NaN, missing rate: NaN)
    # of samples: 113
    # of SNPs: 148,164
    using 2 threads
    # of principal components: 32
PCA:    the sum of all selected genotypes (0,1,2) = 26284302
CPU capabilities: Double-Precision SSE2 AVX
Mon Aug 29 17:38:24 2022    (internal increment: 34468)
[..................................................]  0%, ETC: ---        [==================================================] 100%, completed, 1s
Mon Aug 29 17:38:25 2022    Begin (eigenvalues and eigenvectors)
Mon Aug 29 17:38:25 2022    Done.
# A tibble: 32 x 2
   index variation
   <chr>     <dbl>
 1 PC01      1.77 
 2 PC02      1.44 
 3 PC03      1.31 
 4 PC04      1.27 
 5 PC05      1.09 
 6 PC06      1.08 
 7 PC07      1.06 
 8 PC08      1.03 
 9 PC09      0.980
10 PC10      0.964
#  with 22 more rows
