…
Chromosome LG12: 3.06%, 84/2,749
84 markers are selected in total.
Principal Component Analysis (PCA) on genotypes:
Excluding 0 SNP (monomorphic: TRUE, MAF: NaN, missing rate: NaN)
    # of samples: 113
    # of SNPs: 84
    using 2 threads
    # of principal components: 32
PCA:    the sum of all selected genotypes (0,1,2) = 18869
CPU capabilities: Double-Precision SSE2 AVX
Mon Aug 29 17:25:24 2022    (internal increment: 34468)
[..................................................]  0%, ETC: ---        [==================================================] 100%, completed, 0s
Mon Aug 29 17:25:24 2022    Begin (eigenvalues and eigenvectors)
Mon Aug 29 17:25:24 2022    Done.
# A tibble: 32 x 2
   index variation
   <chr>     <dbl>
 1 PC01       1.72
 2 PC02       1.55
 3 PC03       1.40
 4 PC04       1.21
 5 PC05       1.21
 6 PC06       1.20
 7 PC07       1.20
 8 PC08       1.20
 9 PC09       1.20
10 PC10       1.19
# … with 22 more rows
