…
Chromosome Contig502453: 100.00%, 2/2
2,777,424 markers are selected in total.
Principal Component Analysis (PCA) on genotypes:
Excluding 0 SNP (monomorphic: TRUE, MAF: NaN, missing rate: NaN)
    # of samples: 113
    # of SNPs: 2,777,424
    using 2 threads
    # of principal components: 32
PCA:    the sum of all selected genotypes (0,1,2) = 492615884
CPU capabilities: Double-Precision SSE2 AVX
Thu Aug 25 21:18:03 2022    (internal increment: 34468)
[..................................................]  0%, ETC: ---        [==================================================] 100%, completed, 11s
Thu Aug 25 21:18:14 2022    Begin (eigenvalues and eigenvectors)
Thu Aug 25 21:18:14 2022    Done.
# A tibble: 32 x 2
   index variation
   <chr>     <dbl>
 1 PC01      1.98 
 2 PC02      1.49 
 3 PC03      1.33 
 4 PC04      1.26 
 5 PC05      1.10 
 6 PC06      1.08 
 7 PC07      1.05 
 8 PC08      1.03 
 9 PC09      0.985
10 PC10      0.972
#  with 22 more rows
