…
Chromosome Contig502453: 100.00%, 2/2
200,015 markers are selected in total.
Principal Component Analysis (PCA) on genotypes:
Excluding 0 SNP (monomorphic: TRUE, MAF: NaN, missing rate: NaN)
    # of samples: 113
    # of SNPs: 200,015
    using 2 threads
    # of principal components: 32
PCA:    the sum of all selected genotypes (0,1,2) = 44235233
CPU capabilities: Double-Precision SSE2 AVX
Mon Aug 29 18:47:06 2022    (internal increment: 34468)
[..................................................]  0%, ETC: ---        [==================================================] 100%, completed, 2s
Mon Aug 29 18:47:08 2022    Begin (eigenvalues and eigenvectors)
Mon Aug 29 18:47:08 2022    Done.
# A tibble: 32 x 2
   index variation
   <chr>     <dbl>
 1 PC01       1.64
 2 PC02       1.07
 3 PC03       1.06
 4 PC04       1.05
 5 PC05       1.05
 6 PC06       1.03
 7 PC07       1.03
 8 PC08       1.02
 9 PC09       1.02
10 PC10       1.01
#  with 22 more rows
