…
Chromosome Contig502442: 48.15%, 13/27
7,326,354 markers are selected in total.
Principal Component Analysis (PCA) on genotypes:
Excluding 0 SNP (monomorphic: TRUE, MAF: NaN, missing rate: NaN)
    # of samples: 113
    # of SNPs: 7,326,354
    using 2 threads
    # of principal components: 32
PCA:    the sum of all selected genotypes (0,1,2) = 1248944018
CPU capabilities: Double-Precision SSE2 AVX
Mon Jun 27 17:53:05 2022    (internal increment: 34468)
[..................................................]  0%, ETC: ---        [==================================================] 100%, completed, 55s
Mon Jun 27 17:54:00 2022    Begin (eigenvalues and eigenvectors)
Mon Jun 27 17:54:00 2022    Done.
# A tibble: 32 x 2
   index variation
   <chr>     <dbl>
 1 PC01       2.78
 2 PC02       2.10
 3 PC03       1.81
 4 PC04       1.61
 5 PC05       1.31
 6 PC06       1.21
 7 PC07       1.17
 8 PC08       1.11
 9 PC09       1.08
10 PC10       1.02
#  with 22 more rows
