…
Chromosome Contig502442: 29.63%, 8/27
651,945 markers are selected in total.
Principal Component Analysis (PCA) on genotypes:
Excluding 0 SNP (monomorphic: TRUE, MAF: NaN, missing rate: NaN)
    # of samples: 113
    # of SNPs: 651,945
    using 2 threads
    # of principal components: 32
PCA:    the sum of all selected genotypes (0,1,2) = 107136147
CPU capabilities: Double-Precision SSE2 AVX
Mon Aug 29 18:07:17 2022    (internal increment: 34468)
[..................................................]  0%, ETC: ---        [==================================================] 100%, completed, 4s
Mon Aug 29 18:07:21 2022    Begin (eigenvalues and eigenvectors)
Mon Aug 29 18:07:21 2022    Done.
# A tibble: 32 x 2
   index variation
   <chr>     <dbl>
 1 PC01      1.86 
 2 PC02      1.45 
 3 PC03      1.32 
 4 PC04      1.21 
 5 PC05      1.10 
 6 PC06      1.08 
 7 PC07      1.05 
 8 PC08      1.03 
 9 PC09      0.976
10 PC10      0.957
#  with 22 more rows
