…
Chromosome Contig502453: 100.00%, 2/2
14,214,674 markers are selected in total.
Principal Component Analysis (PCA) on genotypes:
Excluding 0 SNP (monomorphic: TRUE, MAF: NaN, missing rate: NaN)
    # of samples: 113
    # of SNPs: 14,214,674
    using 2 threads
    # of principal components: 32
PCA:    the sum of all selected genotypes (0,1,2) = 2816752250
CPU capabilities: Double-Precision SSE2 AVX
Fri Jun 24 11:36:18 2022    (internal increment: 34468)
[..................................................]  0%, ETC: ---        [==================================================] 100%, completed, 52s
Fri Jun 24 11:37:10 2022    Begin (eigenvalues and eigenvectors)
Fri Jun 24 11:37:10 2022    Done.
# A tibble: 32 x 2
   index variation
   <chr>     <dbl>
 1 PC01       5.91
 2 PC02       1.77
 3 PC03       1.63
 4 PC04       1.53
 5 PC05       1.48
 6 PC06       1.47
 7 PC07       1.45
 8 PC08       1.42
 9 PC09       1.39
10 PC10       1.35
#  with 22 more rows
