…
Chromosome Contig502442: 7.41%, 2/27
45,806 markers are selected in total.
Principal Component Analysis (PCA) on genotypes:
Excluding 0 SNP (monomorphic: TRUE, MAF: NaN, missing rate: NaN)
    # of samples: 113
    # of SNPs: 45,806
    using 2 threads
    # of principal components: 32
PCA:    the sum of all selected genotypes (0,1,2) = 8912050
CPU capabilities: Double-Precision SSE2 AVX
Mon Aug 29 17:47:19 2022    (internal increment: 34468)
[..................................................]  0%, ETC: ---        [==================================================] 100%, completed, 1s
Mon Aug 29 17:47:20 2022    Begin (eigenvalues and eigenvectors)
Mon Aug 29 17:47:20 2022    Done.
# A tibble: 32 x 2
   index variation
   <chr>     <dbl>
 1 PC01      2.07 
 2 PC02      1.55 
 3 PC03      1.48 
 4 PC04      1.43 
 5 PC05      1.23 
 6 PC06      1.15 
 7 PC07      1.11 
 8 PC08      1.05 
 9 PC09      0.999
10 PC10      0.982
#  with 22 more rows
