…
Chromosome LG12: 34.41%, 946/2,749
946 markers are selected in total.
Principal Component Analysis (PCA) on genotypes:
Excluding 0 SNP (monomorphic: TRUE, MAF: NaN, missing rate: NaN)
    # of samples: 113
    # of SNPs: 946
    using 2 threads
    # of principal components: 32
PCA:    the sum of all selected genotypes (0,1,2) = 157135
CPU capabilities: Double-Precision SSE2 AVX
Mon Jun 27 13:48:57 2022    (internal increment: 34468)
[..................................................]  0%, ETC: ---        [==================================================] 100%, completed, 0s
Mon Jun 27 13:48:57 2022    Begin (eigenvalues and eigenvectors)
Mon Jun 27 13:48:57 2022    Done.
# A tibble: 32 x 2
   index variation
   <chr>     <dbl>
 1 PC01      30.8 
 2 PC02       7.13
 3 PC03       4.07
 4 PC04       3.06
 5 PC05       2.63
 6 PC06       2.38
 7 PC07       2.06
 8 PC08       1.97
 9 PC09       1.88
10 PC10       1.73
# … with 22 more rows
