…
Chromosome LG12: 97.27%, 2,674/2,749
2,674 markers are selected in total.
Principal Component Analysis (PCA) on genotypes:
Excluding 0 SNP (monomorphic: TRUE, MAF: NaN, missing rate: NaN)
    # of samples: 113
    # of SNPs: 2,674
    using 2 threads
    # of principal components: 32
PCA:    the sum of all selected genotypes (0,1,2) = 543974
CPU capabilities: Double-Precision SSE2 AVX
Thu Aug 25 23:33:21 2022    (internal increment: 34468)
[..................................................]  0%, ETC: ---        [==================================================] 100%, completed, 1s
Thu Aug 25 23:33:22 2022    Begin (eigenvalues and eigenvectors)
Thu Aug 25 23:33:22 2022    Done.
# A tibble: 32 x 2
   index variation
   <chr>     <dbl>
 1 PC01      13.4 
 2 PC02      10.9 
 3 PC03       3.36
 4 PC04       2.44
 5 PC05       2.19
 6 PC06       1.95
 7 PC07       1.91
 8 PC08       1.80
 9 PC09       1.77
10 PC10       1.72
# … with 22 more rows
