…
Chromosome LG24: 87.42%, 383,560/438,748
13,300,290 markers are selected in total.
Principal Component Analysis (PCA) on genotypes:
Excluding 0 SNP (monomorphic: TRUE, MAF: NaN, missing rate: NaN)
    # of samples: 113
    # of SNPs: 13,300,290
    using 2 threads
    # of principal components: 32
PCA:    the sum of all selected genotypes (0,1,2) = 2637877955
CPU capabilities: Double-Precision SSE2 AVX
Fri Jun 24 14:30:48 2022    (internal increment: 34468)
[..................................................]  0%, ETC: ---        [==================================================] 100%, completed, 1.1m
Fri Jun 24 14:31:55 2022    Begin (eigenvalues and eigenvectors)
Fri Jun 24 14:31:55 2022    Done.
# A tibble: 32 x 2
   index variation
   <chr>     <dbl>
 1 PC01       6.09
 2 PC02       1.79
 3 PC03       1.64
 4 PC04       1.55
 5 PC05       1.49
 6 PC06       1.48
 7 PC07       1.46
 8 PC08       1.43
 9 PC09       1.39
10 PC10       1.35
# … with 22 more rows
