…
Chromosome LG24: 48.16%, 211,309/438,748
6,819,743 markers are selected in total.
Principal Component Analysis (PCA) on genotypes:
Excluding 0 SNP (monomorphic: TRUE, MAF: NaN, missing rate: NaN)
    # of samples: 113
    # of SNPs: 6,819,743
    using 2 threads
    # of principal components: 32
PCA:    the sum of all selected genotypes (0,1,2) = 1163185686
CPU capabilities: Double-Precision SSE2 AVX
Mon Jun 27 19:27:27 2022    (internal increment: 34468)
[..................................................]  0%, ETC: ---        [==================================================] 100%, completed, 30s
Mon Jun 27 19:27:57 2022    Begin (eigenvalues and eigenvectors)
Mon Jun 27 19:27:57 2022    Done.
# A tibble: 32 x 2
   index variation
   <chr>     <dbl>
 1 PC01       2.83
 2 PC02       2.14
 3 PC03       1.83
 4 PC04       1.63
 5 PC05       1.32
 6 PC06       1.21
 7 PC07       1.18
 8 PC08       1.11
 9 PC09       1.09
10 PC10       1.02
# … with 22 more rows
