…
Chromosome LG12: 0.47%, 13/2,749
13 markers are selected in total.
Principal Component Analysis (PCA) on genotypes:
Excluding 0 SNP (monomorphic: TRUE, MAF: NaN, missing rate: NaN)
    # of samples: 113
    # of SNPs: 13
    using 2 threads
    # of principal components: 32
PCA:    the sum of all selected genotypes (0,1,2) = 2754
CPU capabilities: Double-Precision SSE2 AVX
Mon Aug 29 16:34:21 2022    (internal increment: 34468)
[..................................................]  0%, ETC: ---        [==================================================] 100%, completed, 0s
Mon Aug 29 16:34:21 2022    Begin (eigenvalues and eigenvectors)
Mon Aug 29 16:34:21 2022    Done.
# A tibble: 32 x 2
   index variation
   <chr>     <dbl>
 1 PC01      11.6 
 2 PC02      11.1 
 3 PC03       9.67
 4 PC04       9.25
 5 PC05       8.19
 6 PC06       7.72
 7 PC07       7.24
 8 PC08       7.05
 9 PC09       6.88
10 PC10       6.47
# … with 22 more rows
