…
Chromosome LG12: 98.11%, 2,697/2,749
2,697 markers are selected in total.
Principal Component Analysis (PCA) on genotypes:
Excluding 0 SNP (monomorphic: TRUE, MAF: NaN, missing rate: NaN)
    # of samples: 113
    # of SNPs: 2,697
    using 2 threads
    # of principal components: 32
PCA:    the sum of all selected genotypes (0,1,2) = 544270
CPU capabilities: Double-Precision SSE2 AVX
Fri Aug 26 11:30:49 2022    (internal increment: 34468)
[..................................................]  0%, ETC: ---        [==================================================] 100%, completed, 0s
Fri Aug 26 11:30:49 2022    Begin (eigenvalues and eigenvectors)
Fri Aug 26 11:30:49 2022    Done.
# A tibble: 32 x 2
   index variation
   <chr>     <dbl>
 1 PC01      14.2 
 2 PC02      10.8 
 3 PC03       3.40
 4 PC04       2.44
 5 PC05       2.19
 6 PC06       1.94
 7 PC07       1.90
 8 PC08       1.81
 9 PC09       1.77
10 PC10       1.71
# … with 22 more rows
