…
Chromosome LG12: 0.95%, 26/2,749
26 markers are selected in total.
Principal Component Analysis (PCA) on genotypes:
Excluding 0 SNP (monomorphic: TRUE, MAF: NaN, missing rate: NaN)
    # of samples: 113
    # of SNPs: 26
    using 2 threads
    # of principal components: 32
PCA:    the sum of all selected genotypes (0,1,2) = 5074
CPU capabilities: Double-Precision SSE2 AVX
Mon Aug 29 16:32:43 2022    (internal increment: 34468)
[..................................................]  0%, ETC: ---        [==================================================] 100%, completed, 0s
Mon Aug 29 16:32:43 2022    Begin (eigenvalues and eigenvectors)
Mon Aug 29 16:32:43 2022    Done.
# A tibble: 32 x 2
   index variation
   <chr>     <dbl>
 1 PC01       9.30
 2 PC02       7.33
 3 PC03       6.28
 4 PC04       5.71
 5 PC05       5.29
 6 PC06       5.29
 7 PC07       5.26
 8 PC08       5.04
 9 PC09       4.69
10 PC10       4.37
# … with 22 more rows
