…
Chromosome LG12: 2.87%, 79/2,749
79 markers are selected in total.
Principal Component Analysis (PCA) on genotypes:
Excluding 0 SNP (monomorphic: TRUE, MAF: NaN, missing rate: NaN)
    # of samples: 113
    # of SNPs: 79
    using 2 threads
    # of principal components: 32
PCA:    the sum of all selected genotypes (0,1,2) = 16774
CPU capabilities: Double-Precision SSE2 AVX
Sat Aug 27 00:48:17 2022    (internal increment: 34468)
[..................................................]  0%, ETC: ---        [==================================================] 100%, completed, 0s
Sat Aug 27 00:48:17 2022    Begin (eigenvalues and eigenvectors)
Sat Aug 27 00:48:17 2022    Done.
# A tibble: 32 x 2
   index variation
   <chr>     <dbl>
 1 PC01       3.01
 2 PC02       2.89
 3 PC03       2.53
 4 PC04       2.33
 5 PC05       2.15
 6 PC06       2.03
 7 PC07       1.89
 8 PC08       1.77
 9 PC09       1.63
10 PC10       1.48
# … with 22 more rows
