…
Chromosome LG12: 5.97%, 164/2,749
164 markers are selected in total.
Principal Component Analysis (PCA) on genotypes:
Excluding 0 SNP (monomorphic: TRUE, MAF: NaN, missing rate: NaN)
    # of samples: 113
    # of SNPs: 164
    using 2 threads
    # of principal components: 32
PCA:    the sum of all selected genotypes (0,1,2) = 29045
CPU capabilities: Double-Precision SSE2 AVX
Fri Jun 24 20:18:36 2022    (internal increment: 34468)
[..................................................]  0%, ETC: ---        [==================================================] 100%, completed, 0s
Fri Jun 24 20:18:36 2022    Begin (eigenvalues and eigenvectors)
Fri Jun 24 20:18:36 2022    Done.
# A tibble: 32 x 2
   index variation
   <chr>     <dbl>
 1 PC01       9.60
 2 PC02       5.43
 3 PC03       4.09
 4 PC04       3.62
 5 PC05       3.22
 6 PC06       3.08
 7 PC07       2.81
 8 PC08       2.65
 9 PC09       2.43
10 PC10       2.36
# … with 22 more rows
