…
Chromosome Contig502453: 100.00%, 2/2
736,801 markers are selected in total.
Principal Component Analysis (PCA) on genotypes:
Excluding 0 SNP (monomorphic: TRUE, MAF: NaN, missing rate: NaN)
    # of samples: 113
    # of SNPs: 736,801
    using 2 threads
    # of principal components: 32
PCA:    the sum of all selected genotypes (0,1,2) = 126871411
CPU capabilities: Double-Precision SSE2 AVX
Mon Aug 29 19:01:24 2022    (internal increment: 34468)
[..................................................]  0%, ETC: ---        [==================================================] 100%, completed, 4s
Mon Aug 29 19:01:28 2022    Begin (eigenvalues and eigenvectors)
Mon Aug 29 19:01:28 2022    Done.
# A tibble: 32 x 2
   index variation
   <chr>     <dbl>
 1 PC01      1.69 
 2 PC02      1.34 
 3 PC03      1.24 
 4 PC04      1.23 
 5 PC05      1.11 
 6 PC06      1.06 
 7 PC07      1.04 
 8 PC08      1.01 
 9 PC09      0.985
10 PC10      0.958
#  with 22 more rows
