…
Chromosome Contig502453: 100.00%, 2/2
289,515 markers are selected in total.
Principal Component Analysis (PCA) on genotypes:
Excluding 0 SNP (monomorphic: TRUE, MAF: NaN, missing rate: NaN)
    # of samples: 113
    # of SNPs: 289,515
    using 2 threads
    # of principal components: 32
PCA:    the sum of all selected genotypes (0,1,2) = 57035688
CPU capabilities: Double-Precision SSE2 AVX
Fri Jan  6 04:46:47 2023    (internal increment: 34468)
[..................................................]  0%, ETC: ---        [==================================================] 100%, completed, 1s
Fri Jan  6 04:46:48 2023    Begin (eigenvalues and eigenvectors)
Fri Jan  6 04:46:48 2023    Done.
# A tibble: 32 x 2
   index variation
   <chr>     <dbl>
 1 PC01      1.48 
 2 PC02      1.27 
 3 PC03      1.11 
 4 PC04      1.09 
 5 PC05      1.05 
 6 PC06      1.04 
 7 PC07      1.01 
 8 PC08      1.01 
 9 PC09      0.998
10 PC10      0.990
#  with 22 more rows
…
