…
Chromosome Contig502453: 100.00%, 2/2
289,664 markers are selected in total.
Principal Component Analysis (PCA) on genotypes:
Excluding 0 SNP (monomorphic: TRUE, MAF: NaN, missing rate: NaN)
    # of samples: 113
    # of SNPs: 289,664
    using 2 threads
    # of principal components: 32
PCA:    the sum of all selected genotypes (0,1,2) = 57095036
CPU capabilities: Double-Precision SSE2 AVX
Fri Jan  6 01:54:51 2023    (internal increment: 34468)
[..................................................]  0%, ETC: ---        [==================================================] 100%, completed, 1s
Fri Jan  6 01:54:52 2023    Begin (eigenvalues and eigenvectors)
Fri Jan  6 01:54:52 2023    Done.
# A tibble: 32 x 2
   index variation
   <chr>     <dbl>
 1 PC01      1.47 
 2 PC02      1.27 
 3 PC03      1.12 
 4 PC04      1.09 
 5 PC05      1.06 
 6 PC06      1.04 
 7 PC07      1.02 
 8 PC08      1.02 
 9 PC09      1.00 
10 PC10      0.990
#  with 22 more rows
…
